Model term contributions to predicted response — prediction_contributions_data • DImodelsVis
…
    Examples

library(DImodels)
library(dplyr)

## Load data
data(sim2)

## Fit model
mod <- glm(response ~ 0 + (p1 + p2 + p3 + p4)^2, data = sim2)

prediction_contributions_data(data = sim2[c(1,5,9,11), ],
                              model = mod)
#> ✔ Finished data preparation.
#> # A tibble: 40 × 10
#>    .x_labs .Community  community block response .Pred .Lower .Upper
#>    <chr>   <fct>           <int> <fct>    <dbl> <dbl>  <dbl>  <dbl>
#>  1 1       Community 1         1 1         20.2  18.4   17.6   19.3
#>  2 1       Community 1         1 1         20.2  18.4   17.6   19.3
#>  3 1       Community 1         1 1         20.2  18.4   17.6   19.3
#>  4 1       Community 1         1 1         20.2  18.4   17.6   19.3
#>  5 1       Community 1         1 1         20.2  18.4   17.6   19.3
#>  6 1       Community 1         1 1         20.2  18.4   17.6   19.3
#>  7 1       Community 1         1 1         20.2  18.4   17.6   19.3
#>  8 1       Community 1         1 1         20.2  18.4   17.6   19.3
#>  9 1       Community 1         1 1         20.2  18.4   17.6   19.3
#> 10 1       Community 1         1 1         20.2  18.4   17.6   19.3
#> # ℹ 30 more rows
#> # ℹ 2 more variables: .Contributions <chr>, .Value <dbl>
…
#> 15 9       Community 3         3 1         17.9  16.6   15.8   17.5
#> 16 11      Community 4         3 3         17.6  16.6   15.8   17.5
#> 17 11      Community 4         3 3         17.6  16.6   15.8   17.5
#> 18 11      Community 4         3 3         17.6  16.6   15.8   17.5
#> 19 11      Community 4         3 3         17.6  16.6   15.8   17.5
#> 20 11      Community 4         3 3         17.6  16.6   15.8   17.5
#> # ℹ 2 more variables: .Contributions <chr>, .Value <dbl>
## Or by specifying the coefficient names as character strings
prediction_contributions_data(data = sim2[c(1,5,9,11), ],
                              model = mod,
                              groups = list("p1_Ints" = c("p1:p2",
                                                          "p1:p3",
                                                          "p1:p4")))
#> ✔ Finished data preparation.
#> # A tibble: 32 × 10
#>    .x_labs .Community  community block response .Pred .Lower .Upper
#>    <chr>   <fct>           <int> <fct>    <dbl> <dbl>  <dbl>  <dbl>
#>  1 1       Community 1         1 1         20.2  18.4   17.6   19.3
#>  2 1       Community 1         1 1         20.2  18.4   17.6   19.3
#>  3 1       Community 1         1 1         20.2  18.4   17.6   19.3
#>  4 1       Community 1         1 1         20.2  18.4   17.6   19.3
#>  5 1       Community 1         1 1         20.2  18.4   17.6   19.3
#>  6 1       Community 1         1 1         20.2  18.4   17.6   19.3
#>  7 1       Community 1         1 1         20.2  18.4   17.6   19.3
#>  8 1       Community 1         1 1         20.2  18.4   17.6   19.3
#>  9 5       Community 2         2 1         17.2  17.5   16.7   18.4
#> 10 5       Community 2         2 1         17.2  17.5   16.7   18.4
#> # ℹ 22 more rows
#> # ℹ 2 more variables: .Contributions <chr>, .Value <dbl>
…
#>     p1  p2  p3  p4 p1:p2 p1:p3 p1:p4 p2:p3 p2:p4 p3:p4
#> 1  0.7 0.1 0.1 0.1  0.07  0.07  0.07  0.01  0.01  0.01
#> 5  0.1 0.7 0.1 0.1  0.07  0.07  0.01  0.07  0.07  0.01
#> 9  0.1 0.1 0.7 0.1  0.01  0.01  0.01  0.07  0.01  0.07
#> 11 0.1 0.1 0.7 0.1  0.01  0.01  0.01  0.07  0.01  0.07
print(mod$coefficients)
#>        p1        p2        p3        p4     p1:p2     p1:p3     p1:p4     p2:p3 
#> 10.699426 10.228917  8.939289  8.532857 33.894874 37.552444 32.720996 26.739691 
#>     p2:p4     p3:p4 
#> 33.188799 27.771368 
prediction_contributions_data(data = coef_data,
                              coefficients = mod$coefficients,
                              interval = "none")
#> ✔ Finished data preparation.
#> # A tibble: 40 × 5
#>    .x_labs .Community  .Pred .Contributions .Value
#>    <chr>   <fct>       <dbl> <chr>           <dbl>
#>  1 1       Community 1  18.4 p1              7.49 
#>  2 1       Community 1  18.4 p2              1.02 
#>  3 1       Community 1  18.4 p3              0.894
#>  4 1       Community 1  18.4 p4              0.853
#>  5 1       Community 1  18.4 p1:p2           2.37 
#>  6 1       Community 1  18.4 p1:p3           2.63 
#>  7 1       Community 1  18.4 p1:p4           2.29 
#>  8 1       Community 1  18.4 p2:p3           0.267
#>  9 1       Community 1  18.4 p2:p4           0.332
#> 10 1       Community 1  18.4 p3:p4           0.278
#> # ℹ 30 more rows
## To get uncertainity using coefficients vcov matrix would have to specified
prediction_contributions_data(data = coef_data,
                              coefficients = mod$coefficients,
                              vcov = vcov(mod))
#> ✔ Finished data preparation.
#> # A tibble: 40 × 7
#>    .x_labs .Community  .Pred .Lower .Upper .Contributions .Value
#>    <chr>   <fct>       <dbl>  <dbl>  <dbl> <chr>           <dbl>
#>  1 1       Community 1  18.4   17.6   19.3 p1              7.49 
#>  2 1       Community 1  18.4   17.6   19.3 p2              1.02 
#>  3 1       Community 1  18.4   17.6   19.3 p3              0.894
#>  4 1       Community 1  18.4   17.6   19.3 p4              0.853
#>  5 1       Community 1  18.4   17.6   19.3 p1:p2           2.37 
#>  6 1       Community 1  18.4   17.6   19.3 p1:p3           2.63 
#>  7 1       Community 1  18.4   17.6   19.3 p1:p4           2.29 
#>  8 1       Community 1  18.4   17.6   19.3 p2:p3           0.267
#>  9 1       Community 1  18.4   17.6   19.3 p2:p4           0.332
#> 10 1       Community 1  18.4   17.6   19.3 p3:p4           0.278
#> # ℹ 30 more rows

## Specifying `bar_labs`
## Our data has four rows so we'd need four labels in bar_labs
prediction_contributions_data(data = coef_data,
                              coefficients = mod$coefficients,
                              vcov = vcov(mod),
                              bar_labs = c("p1 Domm", "p2 Domm",
                                           "p3 Domm", "p4 Domm"))
#> ✔ Finished data preparation.
#> # A tibble: 40 × 7
#>    .x_labs .Community  .Pred .Lower .Upper .Contributions .Value
#>    <chr>   <fct>       <dbl>  <dbl>  <dbl> <chr>           <dbl>
#>  1 p1 Domm Community 1  18.4   17.6   19.3 p1              7.49 
#>  2 p1 Domm Community 1  18.4   17.6   19.3 p2              1.02 
#>  3 p1 Domm Community 1  18.4   17.6   19.3 p3              0.894
#>  4 p1 Domm Community 1  18.4   17.6   19.3 p4              0.853
#>  5 p1 Domm Community 1  18.4   17.6   19.3 p1:p2           2.37 
#>  6 p1 Domm Community 1  18.4   17.6   19.3 p1:p3           2.63 
#>  7 p1 Domm Community 1  18.4   17.6   19.3 p1:p4           2.29 
#>  8 p1 Domm Community 1  18.4   17.6   19.3 p2:p3           0.267
#>  9 p1 Domm Community 1  18.4   17.6   19.3 p2:p4           0.332
#> 10 p1 Domm Community 1  18.4   17.6   19.3 p3:p4           0.278
#> # ℹ 30 more rows
…
