DImodelsVis with black-box models • DImodelsVis
…
                       # Show effects plot for all compostional variables
                       var_interest = c("Sand", "Silt", "Clay"),
                       # Don't make predictions now and only return template
                       prediction = FALSE) %>% 
  # Add predictions
  add_prediction(interval = "none",        # No uncertainty intervals
                 model = nn_model) %>%     # Model to use for making predictions 
  # Print first few rows of data
  as_tibble() %>% print(n = 6) %>%  
  # Create plot
  visualise_effects_plot() +
    # ggplot function to add labels on plot
    labs(y = "Predicted SOC")
#> ✔ Finished data preparation.
#> # A tibble: 4,545 × 8
#>    Sand  Silt  Clay .Sp   .Proportion .Group .Effect  .Pred
#>   <dbl> <dbl> <dbl> <fct>       <dbl>  <int> <chr>    <dbl>
#> 1  0     1        0 Sand         0         1 increase  5.07
#> 2  0.01  0.99     0 Sand         0.01      1 increase  5.03
#> 3  0.02  0.98     0 Sand         0.02      1 increase  5.00
#> 4  0.03  0.97     0 Sand         0.03      1 increase  4.97
#> 5  0.04  0.96     0 Sand         0.04      1 increase  4.94
#> 6  0.05  0.95     0 Sand         0.05      1 increase  4.91
#> # ℹ 4,539 more rows
…
