Using DImodelsVis with regression models not fit using the DImodels package • DImodelsVis
…
plot_data <- prediction_contributions_data(data = subset_data,
                                           model = mod)
#> ✔ Finished data preparation.
plot_data
#> # A tibble: 49 × 10
#>    .Community richness treatment response    AV .Pred .Lower .Upper
#>    <fct>         <int> <fct>        <dbl> <dbl> <dbl>  <dbl>  <dbl>
#>  1 1                 1 50            26.3     0  30.2   28.6   31.9
#>  2 1                 1 50            26.3     0  30.2   28.6   31.9
#>  3 1                 1 50            26.3     0  30.2   28.6   31.9
#>  4 1                 1 50            26.3     0  30.2   28.6   31.9
#>  5 1                 1 50            26.3     0  30.2   28.6   31.9
#>  6 1                 1 50            26.3     0  30.2   28.6   31.9
#>  7 1                 1 50            26.3     0  30.2   28.6   31.9
#>  8 4                 1 50            17.4     0  20.2   18.5   21.9
#>  9 4                 1 50            17.4     0  20.2   18.5   21.9
#> 10 4                 1 50            17.4     0  20.2   18.5   21.9
#> # ℹ 39 more rows
#> # ℹ 2 more variables: .Contributions <chr>, .Value <dbl>
…
